2016-03-30 16:22:55: <div style="border:1px solid #990000;padding-left:20px;margin:0 0 10px 0;">

<h4>A PHP Error was encountered</h4>

<p>Severity: Warning</p>
<p>Message:  file_put_contents(/var/www/html/surattangsel/application/cache/frame_5.dat): failed to open stream: Permission denied</p>
<p>Filename: qrcode/qrspec.php</p>
<p>Line Number: 568</p>

</div><div style="border:1px solid #990000;padding-left:20px;margin:0 0 10px 0;">

<h4>A PHP Error was encountered</h4>

<p>Severity: Warning</p>
<p>Message:  file_put_contents(/var/www/html/surattangsel/application/cache/mask_0/mask_37_0.dat): failed to open stream: Permission denied</p>
<p>Filename: qrcode/qrmask.php</p>
<p>Line Number: 155</p>

</div><div style="border:1px solid #990000;padding-left:20px;margin:0 0 10px 0;">

<h4>A PHP Error was encountered</h4>

<p>Severity: Warning</p>
<p>Message:  file_put_contents(/var/www/html/surattangsel/application/cache/mask_1/mask_37_1.dat): failed to open stream: Permission denied</p>
<p>Filename: qrcode/qrmask.php</p>
<p>Line Number: 155</p>

</div><div style="border:1px solid #990000;padding-left:20px;margin:0 0 10px 0;">

<h4>A PHP Error was encountered</h4>

<p>Severity: Warning</p>
<p>Message:  file_put_contents(/var/www/html/surattangsel/application/cache/mask_2/mask_37_2.dat): failed to open stream: Permission denied</p>
<p>Filename: qrcode/qrmask.php</p>
<p>Line Number: 155</p>

</div><div style="border:1px solid #990000;padding-left:20px;margin:0 0 10px 0;">

<h4>A PHP Error was encountered</h4>

<p>Severity: Warning</p>
<p>Message:  file_put_contents(/var/www/html/surattangsel/application/cache/mask_3/mask_37_3.dat): failed to open stream: Permission denied</p>
<p>Filename: qrcode/qrmask.php</p>
<p>Line Number: 155</p>

</div><div style="border:1px solid #990000;padding-left:20px;margin:0 0 10px 0;">

<h4>A PHP Error was encountered</h4>

<p>Severity: Warning</p>
<p>Message:  file_put_contents(/var/www/html/surattangsel/application/cache/mask_4/mask_37_4.dat): failed to open stream: Permission denied</p>
<p>Filename: qrcode/qrmask.php</p>
<p>Line Number: 155</p>

</div><div style="border:1px solid #990000;padding-left:20px;margin:0 0 10px 0;">

<h4>A PHP Error was encountered</h4>

<p>Severity: Warning</p>
<p>Message:  file_put_contents(/var/www/html/surattangsel/application/cache/mask_5/mask_37_5.dat): failed to open stream: Permission denied</p>
<p>Filename: qrcode/qrmask.php</p>
<p>Line Number: 155</p>

</div><div style="border:1px solid #990000;padding-left:20px;margin:0 0 10px 0;">

<h4>A PHP Error was encountered</h4>

<p>Severity: Warning</p>
<p>Message:  file_put_contents(/var/www/html/surattangsel/application/cache/mask_6/mask_37_6.dat): failed to open stream: Permission denied</p>
<p>Filename: qrcode/qrmask.php</p>
<p>Line Number: 155</p>

</div><div style="border:1px solid #990000;padding-left:20px;margin:0 0 10px 0;">

<h4>A PHP Error was encountered</h4>

<p>Severity: Warning</p>
<p>Message:  file_put_contents(/var/www/html/surattangsel/application/cache/mask_7/mask_37_7.dat): failed to open stream: Permission denied</p>
<p>Filename: qrcode/qrmask.php</p>
<p>Line Number: 155</p>

</div>