2016-04-12 13:05:14: <div style="border:1px solid #990000;padding-left:20px;margin:0 0 10px 0;">

<h4>A PHP Error was encountered</h4>

<p>Severity: Warning</p>
<p>Message:  file_put_contents(/var/www/html/surattangsel/application/cache/frame_10.dat): failed to open stream: Permission denied</p>
<p>Filename: qrcode/qrspec.php</p>
<p>Line Number: 568</p>

</div><div style="border:1px solid #990000;padding-left:20px;margin:0 0 10px 0;">

<h4>A PHP Error was encountered</h4>

<p>Severity: Warning</p>
<p>Message:  file_put_contents(/var/www/html/surattangsel/application/cache/mask_0/mask_57_0.dat): failed to open stream: Permission denied</p>
<p>Filename: qrcode/qrmask.php</p>
<p>Line Number: 155</p>

</div><div style="border:1px solid #990000;padding-left:20px;margin:0 0 10px 0;">

<h4>A PHP Error was encountered</h4>

<p>Severity: Warning</p>
<p>Message:  file_put_contents(/var/www/html/surattangsel/application/cache/mask_1/mask_57_1.dat): failed to open stream: Permission denied</p>
<p>Filename: qrcode/qrmask.php</p>
<p>Line Number: 155</p>

</div><div style="border:1px solid #990000;padding-left:20px;margin:0 0 10px 0;">

<h4>A PHP Error was encountered</h4>

<p>Severity: Warning</p>
<p>Message:  file_put_contents(/var/www/html/surattangsel/application/cache/mask_2/mask_57_2.dat): failed to open stream: Permission denied</p>
<p>Filename: qrcode/qrmask.php</p>
<p>Line Number: 155</p>

</div><div style="border:1px solid #990000;padding-left:20px;margin:0 0 10px 0;">

<h4>A PHP Error was encountered</h4>

<p>Severity: Warning</p>
<p>Message:  file_put_contents(/var/www/html/surattangsel/application/cache/mask_3/mask_57_3.dat): failed to open stream: Permission denied</p>
<p>Filename: qrcode/qrmask.php</p>
<p>Line Number: 155</p>

</div><div style="border:1px solid #990000;padding-left:20px;margin:0 0 10px 0;">

<h4>A PHP Error was encountered</h4>

<p>Severity: Warning</p>
<p>Message:  file_put_contents(/var/www/html/surattangsel/application/cache/mask_4/mask_57_4.dat): failed to open stream: Permission denied</p>
<p>Filename: qrcode/qrmask.php</p>
<p>Line Number: 155</p>

</div><div style="border:1px solid #990000;padding-left:20px;margin:0 0 10px 0;">

<h4>A PHP Error was encountered</h4>

<p>Severity: Warning</p>
<p>Message:  file_put_contents(/var/www/html/surattangsel/application/cache/mask_5/mask_57_5.dat): failed to open stream: Permission denied</p>
<p>Filename: qrcode/qrmask.php</p>
<p>Line Number: 155</p>

</div><div style="border:1px solid #990000;padding-left:20px;margin:0 0 10px 0;">

<h4>A PHP Error was encountered</h4>

<p>Severity: Warning</p>
<p>Message:  file_put_contents(/var/www/html/surattangsel/application/cache/mask_6/mask_57_6.dat): failed to open stream: Permission denied</p>
<p>Filename: qrcode/qrmask.php</p>
<p>Line Number: 155</p>

</div><div style="border:1px solid #990000;padding-left:20px;margin:0 0 10px 0;">

<h4>A PHP Error was encountered</h4>

<p>Severity: Warning</p>
<p>Message:  file_put_contents(/var/www/html/surattangsel/application/cache/mask_7/mask_57_7.dat): failed to open stream: Permission denied</p>
<p>Filename: qrcode/qrmask.php</p>
<p>Line Number: 155</p>

</div>2016-04-13 14:31:56: <div style="border:1px solid #990000;padding-left:20px;margin:0 0 10px 0;">

<h4>A PHP Error was encountered</h4>

<p>Severity: Warning</p>
<p>Message:  file_put_contents(/var/www/html/surattangsel/application/cache/frame_10.dat): failed to open stream: Permission denied</p>
<p>Filename: qrcode/qrspec.php</p>
<p>Line Number: 568</p>

</div><div style="border:1px solid #990000;padding-left:20px;margin:0 0 10px 0;">

<h4>A PHP Error was encountered</h4>

<p>Severity: Warning</p>
<p>Message:  file_put_contents(/var/www/html/surattangsel/application/cache/mask_0/mask_57_0.dat): failed to open stream: Permission denied</p>
<p>Filename: qrcode/qrmask.php</p>
<p>Line Number: 155</p>

</div><div style="border:1px solid #990000;padding-left:20px;margin:0 0 10px 0;">

<h4>A PHP Error was encountered</h4>

<p>Severity: Warning</p>
<p>Message:  file_put_contents(/var/www/html/surattangsel/application/cache/mask_1/mask_57_1.dat): failed to open stream: Permission denied</p>
<p>Filename: qrcode/qrmask.php</p>
<p>Line Number: 155</p>

</div><div style="border:1px solid #990000;padding-left:20px;margin:0 0 10px 0;">

<h4>A PHP Error was encountered</h4>

<p>Severity: Warning</p>
<p>Message:  file_put_contents(/var/www/html/surattangsel/application/cache/mask_2/mask_57_2.dat): failed to open stream: Permission denied</p>
<p>Filename: qrcode/qrmask.php</p>
<p>Line Number: 155</p>

</div><div style="border:1px solid #990000;padding-left:20px;margin:0 0 10px 0;">

<h4>A PHP Error was encountered</h4>

<p>Severity: Warning</p>
<p>Message:  file_put_contents(/var/www/html/surattangsel/application/cache/mask_3/mask_57_3.dat): failed to open stream: Permission denied</p>
<p>Filename: qrcode/qrmask.php</p>
<p>Line Number: 155</p>

</div><div style="border:1px solid #990000;padding-left:20px;margin:0 0 10px 0;">

<h4>A PHP Error was encountered</h4>

<p>Severity: Warning</p>
<p>Message:  file_put_contents(/var/www/html/surattangsel/application/cache/mask_4/mask_57_4.dat): failed to open stream: Permission denied</p>
<p>Filename: qrcode/qrmask.php</p>
<p>Line Number: 155</p>

</div><div style="border:1px solid #990000;padding-left:20px;margin:0 0 10px 0;">

<h4>A PHP Error was encountered</h4>

<p>Severity: Warning</p>
<p>Message:  file_put_contents(/var/www/html/surattangsel/application/cache/mask_5/mask_57_5.dat): failed to open stream: Permission denied</p>
<p>Filename: qrcode/qrmask.php</p>
<p>Line Number: 155</p>

</div><div style="border:1px solid #990000;padding-left:20px;margin:0 0 10px 0;">

<h4>A PHP Error was encountered</h4>

<p>Severity: Warning</p>
<p>Message:  file_put_contents(/var/www/html/surattangsel/application/cache/mask_6/mask_57_6.dat): failed to open stream: Permission denied</p>
<p>Filename: qrcode/qrmask.php</p>
<p>Line Number: 155</p>

</div><div style="border:1px solid #990000;padding-left:20px;margin:0 0 10px 0;">

<h4>A PHP Error was encountered</h4>

<p>Severity: Warning</p>
<p>Message:  file_put_contents(/var/www/html/surattangsel/application/cache/mask_7/mask_57_7.dat): failed to open stream: Permission denied</p>
<p>Filename: qrcode/qrmask.php</p>
<p>Line Number: 155</p>

</div>